Field,Type,Null,Key,Default,Extra
UserName,varchar(20),NO,MUL,NULL,
CustomerID,int(11),NO,PRI,NULL,auto_increment
CCNumber,int(16),YES,,NULL,
Expiry_Date,varchar(45),YES,,NULL,
CVV,int(11),YES,,NULL,
"Card Type",varchar(45),YES,,NULL,
